vcd/wave_min_sopc.vcd
$date
	Tue Jun 06 00:15:05 2023
$end
$version
	Icarus Verilog
$end
$timescale
	1ps
$end
$scope module tb_openmips_min_sopc $end
$var reg 1 ! CLOCK_50 $end
$var reg 1 " rst $end
$scope module openmips_min_sopc0 $end
$var wire 1 ! clk $end
$var wire 1 " rst $end
$var wire 1 # rom_ce $end
$var wire 32 $ inst_addr [31:0] $end
$var wire 32 % inst [31:0] $end
$scope module inst_rom0 $end
$var wire 1 # ce $end
$var wire 32 & addr [31:0] $end
$var reg 32 ' inst [31:0] $end
$upscope $end
$scope module openmips0 $end
$var wire 1 ! clk $end
$var wire 32 ( rom_addr_o [31:0] $end
$var wire 32 ) rom_data_i [31:0] $end
$var wire 1 " rst $end
$var wire 1 * stallreq_from_ex $end
$var wire 1 + stallreq_from_id $end
$var wire 1 , wb_wreg_i $end
$var wire 32 - wb_wdata_i [31:0] $end
$var wire 5 . wb_wd_i [4:0] $end
$var wire 6 / stall [5:0] $end
$var wire 1 # rom_ce_o $end
$var wire 1 0 reg2_read $end
$var wire 32 1 reg2_data [31:0] $end
$var wire 5 2 reg2_addr [4:0] $end
$var wire 1 3 reg1_read $end
$var wire 32 4 reg1_data [31:0] $end
$var wire 5 5 reg1_addr [4:0] $end
$var wire 32 6 pc [31:0] $end
$var wire 1 7 next_inst_in_delayslot_o $end
$var wire 1 8 mem_wreg_o $end
$var wire 1 9 mem_wreg_i $end
$var wire 32 : mem_wdata_o [31:0] $end
$var wire 32 ; mem_wdata_i [31:0] $end
$var wire 5 < mem_wd_o [4:0] $end
$var wire 5 = mem_wd_i [4:0] $end
$var wire 1 > is_in_delayslot_i $end
$var wire 1 ? id_wreg_o $end
$var wire 5 @ id_wd_o [4:0] $end
$var wire 32 A id_reg2_o [31:0] $end
$var wire 32 B id_reg1_o [31:0] $end
$var wire 32 C id_pc_i [31:0] $end
$var wire 32 D id_link_address_o [31:0] $end
$var wire 1 E id_is_in_delayslot_o $end
$var wire 32 F id_inst_i [31:0] $end
$var wire 1 G id_branch_flag_o $end
$var wire 3 H id_alusel_o [2:0] $end
$var wire 8 I id_aluop_o [7:0] $end
$var wire 1 J ex_wreg_o $end
$var wire 1 K ex_wreg_i $end
$var wire 32 L ex_wdata_o [31:0] $end
$var wire 5 M ex_wd_o [4:0] $end
$var wire 5 N ex_wd_i [4:0] $end
$var wire 32 O ex_reg2_i [31:0] $end
$var wire 32 P ex_reg1_i [31:0] $end
$var wire 32 Q ex_link_address_i [31:0] $end
$var wire 1 R ex_is_in_delayslot_i $end
$var wire 3 S ex_alusel_i [2:0] $end
$var wire 8 T ex_aluop_i [7:0] $end
$var wire 32 U branch_target_address [31:0] $end
$scope module ctrl0 $end
$var wire 1 " rst $end
$var wire 1 * stallreq_from_ex $end
$var wire 1 + stallreq_from_id $end
$var reg 6 V stall [5:0] $end
$upscope $end
$scope module ex0 $end
$var wire 1 W ov_sum $end
$var wire 32 X reg1_i_not [31:0] $end
$var wire 1 " rst $end
$var wire 1 * stallreq $end
$var wire 1 K wreg_i $end
$var wire 5 Y wd_i [4:0] $end
$var wire 32 Z result_sum [31:0] $end
$var wire 32 [ reg2_i_mux [31:0] $end
$var wire 32 \ reg2_i [31:0] $end
$var wire 1 ] reg1_lt_reg2 $end
$var wire 32 ^ reg1_i [31:0] $end
$var wire 32 _ opdata2_mult [31:0] $end
$var wire 32 ` opdata1_mult [31:0] $end
$var wire 32 a link_address_i [31:0] $end
$var wire 1 R is_in_delayslot_i $end
$var wire 64 b hilo_temp [63:0] $end
$var wire 3 c alusel_i [2:0] $end
$var wire 8 d aluop_i [7:0] $end
$var reg 32 e arithmeticres [31:0] $end
$var reg 32 f logicout [31:0] $end
$var reg 64 g mulres [63:0] $end
$var reg 32 h shiftres [31:0] $end
$var reg 5 i wd_o [4:0] $end
$var reg 32 j wdata_o [31:0] $end
$var reg 1 J wreg_o $end
$upscope $end
$scope module ex_mem0 $end
$var wire 1 ! clk $end
$var wire 5 k ex_wd [4:0] $end
$var wire 32 l ex_wdata [31:0] $end
$var wire 1 J ex_wreg $end
$var wire 1 " rst $end
$var wire 6 m stall [5:0] $end
$var reg 5 n mem_wd [4:0] $end
$var reg 32 o mem_wdata [31:0] $end
$var reg 1 9 mem_wreg $end
$upscope $end
$scope module id0 $end
$var wire 5 p ex_wd_i [4:0] $end
$var wire 32 q ex_wdata_i [31:0] $end
$var wire 1 J ex_wreg_i $end
$var wire 1 " rst $end
$var wire 1 + stallreq $end
$var wire 32 r reg2_data_i [31:0] $end
$var wire 32 s reg1_data_i [31:0] $end
$var wire 32 t pc_plus_8 [31:0] $end
$var wire 32 u pc_plus_4 [31:0] $end
$var wire 32 v pc_i [31:0] $end
$var wire 5 w op4 [4:0] $end
$var wire 6 x op3 [5:0] $end
$var wire 5 y op2 [4:0] $end
$var wire 6 z op [5:0] $end
$var wire 1 8 mem_wreg_i $end
$var wire 32 { mem_wdata_i [31:0] $end
$var wire 5 | mem_wd_i [4:0] $end
$var wire 1 > is_in_delayslot_i $end
$var wire 32 } inst_i [31:0] $end
$var wire 32 ~ imm_sll2_signedext [31:0] $end
$var reg 8 !" aluop_o [7:0] $end
$var reg 3 "" alusel_o [2:0] $end
$var reg 1 G branch_flag_o $end
$var reg 32 #" branch_target_address_o [31:0] $end
$var reg 32 $" imm [31:0] $end
$var reg 1 %" instvalid $end
$var reg 1 E is_in_delayslot_o $end
$var reg 32 &" link_addr_o [31:0] $end
$var reg 1 7 next_inst_in_delayslot_o $end
$var reg 5 '" reg1_addr_o [4:0] $end
$var reg 32 (" reg1_o [31:0] $end
$var reg 1 3 reg1_read_o $end
$var reg 5 )" reg2_addr_o [4:0] $end
$var reg 32 *" reg2_o [31:0] $end
$var reg 1 0 reg2_read_o $end
$var reg 5 +" wd_o [4:0] $end
$var reg 1 ? wreg_o $end
$upscope $end
$scope module id_ex0 $end
$var wire 1 ! clk $end
$var wire 8 ," id_aluop [7:0] $end
$var wire 3 -" id_alusel [2:0] $end
$var wire 1 E id_is_in_delayslot $end
$var wire 32 ." id_link_address [31:0] $end
$var wire 32 /" id_reg1 [31:0] $end
$var wire 32 0" id_reg2 [31:0] $end
$var wire 5 1" id_wd [4:0] $end
$var wire 1 ? id_wreg $end
$var wire 1 7 next_inst_in_delayslot_i $end
$var wire 1 " rst $end
$var wire 6 2" stall [5:0] $end
$var reg 8 3" ex_aluop [7:0] $end
$var reg 3 4" ex_alusel [2:0] $end
$var reg 1 R ex_is_in_delayslot $end
$var reg 32 5" ex_link_address [31:0] $end
$var reg 32 6" ex_reg1 [31:0] $end
$var reg 32 7" ex_reg2 [31:0] $end
$var reg 5 8" ex_wd [4:0] $end
$var reg 1 K ex_wreg $end
$var reg 1 > is_in_delayslot_o $end
$upscope $end
$scope module if_id0 $end
$var wire 1 ! clk $end
$var wire 32 9" if_inst [31:0] $end
$var wire 1 " rst $end
$var wire 6 :" stall [5:0] $end
$var wire 32 ;" if_pc [31:0] $end
$var reg 32 <" id_inst [31:0] $end
$var reg 32 =" id_pc [31:0] $end
$upscope $end
$scope module mem0 $end
$var wire 1 " rst $end
$var wire 5 >" wd_i [4:0] $end
$var wire 32 ?" wdata_i [31:0] $end
$var wire 1 9 wreg_i $end
$var reg 5 @" wd_o [4:0] $end
$var reg 32 A" wdata_o [31:0] $end
$var reg 1 8 wreg_o $end
$upscope $end
$scope module mem_wb0 $end
$var wire 1 ! clk $end
$var wire 5 B" mem_wd [4:0] $end
$var wire 32 C" mem_wdata [31:0] $end
$var wire 1 8 mem_wreg $end
$var wire 1 " rst $end
$var wire 6 D" stall [5:0] $end
$var reg 5 E" wb_wd [4:0] $end
$var reg 32 F" wb_wdata [31:0] $end
$var reg 1 , wb_wreg $end
$upscope $end
$scope module pc_reg0 $end
$var wire 1 G branch_flag_i $end
$var wire 32 G" branch_target_address_i [31:0] $end
$var wire 1 ! clk $end
$var wire 1 " rst $end
$var wire 6 H" stall [5:0] $end
$var reg 1 # ce $end
$var reg 32 I" pc [31:0] $end
$upscope $end
$scope module regfile1 $end
$var wire 1 ! clk $end
$var wire 5 J" raddr1 [4:0] $end
$var wire 5 K" raddr2 [4:0] $end
$var wire 1 3 re1 $end
$var wire 1 0 re2 $end
$var wire 1 " rst $end
$var wire 5 L" waddr [4:0] $end
$var wire 32 M" wdata [31:0] $end
$var wire 1 , we $end
$var reg 32 N" rdata1 [31:0] $end
$var reg 32 O" rdata2 [31:0] $end
$upscope $end
$upscope $end
$upscope $end
$upscope $end
$enddefinitions $end
#0
$dumpvars
b0 O"
b0 N"
bx M"
bx L"
b0 K"
b0 J"
bx I"
b0 H"
b0 G"
bx F"
bx E"
b0 D"
b0 C"
b0 B"
b0 A"
b0 @"
bx ?"
bx >"
bx ="
bx <"
bx ;"
b0 :"
bx 9"
bx 8"
bx 7"
bx 6"
bx 5"
bx 4"
bx 3"
b0 2"
b0 1"
b0 0"
b0 /"
b0 ."
b0 -"
b0 ,"
b0 +"
b0 *"
b0 )"
b0 ("
b0 '"
b0 &"
0%"
b0 $"
b0 #"
b0 ""
b0 !"
bx00 ~
bx }
b0 |
b0 {
bx z
bx y
bx x
bx w
bx v
bx u
bx t
b0 s
b0 r
b0 q
bx p
bx o
bx n
b0 m
b0 l
bx k
b0 j
bx i
b0 h
b0 g
b0 f
b0 e
bx d
bx c
bx b
bx a
bx `
bx _
bx ^
x]
bx \
bx [
bx Z
bx Y
bx X
xW
b0 V
b0 U
bx T
bx S
xR
bx Q
bx P
bx O
bx N
bx M
b0 L
xK
xJ
b0 I
b0 H
0G
bx F
0E
b0 D
bx C
b0 B
b0 A
b0 @
0?
x>
bx =
b0 <
bx ;
b0 :
x9
08
07
bx 6
b0 5
b0 4
03
b0 2
b0 1
00
b0 /
bx .
bx -
x,
0+
z*
bx )
bx (
bx '
bx &
bx %
bx $
x#
1"
0!
$end
#10000
b0 %
b0 '
b0 )
b0 9"
0J
b0 M
b0 i
b0 k
b0 p
0W
b0 w
b0 x
b0 y
b0 z
b0 ~
b0 b
b0 _
b0 Z
b0 [
b0 `
b11111111111111111111111111111111 X
0]
0#
b0 F
b0 }
b0 <"
b1000 t
b100 u
b0 C
b0 v
b0 ="
0>
0R
b0 Q
b0 a
b0 5"
0K
b0 N
b0 Y
b0 8"
b0 O
b0 \
b0 7"
b0 P
b0 ^
b0 6"
b0 S
b0 c
b0 4"
b0 T
b0 d
b0 3"
b0 ;
b0 o
b0 ?"
09
b0 =
b0 n
b0 >"
b0 -
b0 F"
b0 M"
0,
b0 .
b0 E"
b0 L"
1!
#20000
0!
#30000
b0 $
b0 &
b0 (
b0 6
b0 ;"
b0 I"
1!
#40000
0!
#50000
1!
#60000
0!
#70000
1!
#80000
0!
#90000
1!
#100000
0!
#110000
1!
#120000
0!
#130000
1!
#140000
0!
#150000
1!
#160000
0!
#170000
1!
#180000
0!
#190000
1!
#195000
10
b10 H
b10 ""
b10 -"
b1111100 I
b1111100 !"
b1111100 ,"
1?
0%"
0"
#200000
0!
#210000
b110100000000111000000000000000 %
b110100000000111000000000000000 '
b110100000000111000000000000000 )
b110100000000111000000000000000 9"
1J
1#
1K
b10 S
b10 c
b10 4"
b1111100 T
b1111100 d
b1111100 3"
1!
#220000
0!
#230000
b1000000000000000 A
b1000000000000000 *"
b1000000000000000 0"
b1000000000000000 $"
13
18
b11 2
b11 )"
b11 K"
00
0%"
1?
b11 @
b11 +"
b11 1"
b1 H
b1 ""
b1 -"
b100101 I
b100101 !"
b100101 ,"
b110001110000000000 %
b110001110000000000 '
b110001110000000000 )
b110001110000000000 9"
b11 w
b1101 z
b11111111111111100000000000000000 ~
19
b110100000000111000000000000000 F
b110100000000111000000000000000 }
b110100000000111000000000000000 <"
b100 $
b100 &
b100 (
b100 6
b100 ;"
b100 I"
1!
#240000
0!
#250000
bx 1
bx r
bx O"
b1000000000000000 A
b1000000000000000 *"
b1000000000000000 0"
b10000 B
b10000 ("
b10000 /"
b1000000000000000 L
b1000000000000000 j
b1000000000000000 l
b1000000000000000 q
b110100000000010000000000000001 %
b110100000000010000000000000001 '
b110100000000010000000000000001 )
b110100000000010000000000000001 9"
10
b10000 $"
03
0%"
1?
b10 H
b10 ""
b10 -"
b1111100 I
b1111100 !"
b1111100 ,"
b11 M
b11 i
b11 k
b11 p
b1000000000000000 f
b10000 y
b0 z
b111000000000000 ~
b1000000000000000 _
1]
b1000000000000000 Z
b1000000000000000 [
b1000 $
b1000 &
b1000 (
b1000 6
b1000 ;"
b1000 I"
b110001110000000000 F
b110001110000000000 }
b110001110000000000 <"
b1100 t
b1000 u
b100 C
b100 v
b100 ="
b11 N
b11 Y
b11 8"
b1000000000000000 O
b1000000000000000 \
b1000000000000000 7"
b1 S
b1 c
b1 4"
b100101 T
b100101 d
b100101 3"
1,
1!
#260000
0!
#270000
b0 B
b0 ("
b0 /"
b1 A
b1 *"
b1 0"
b0 1
b0 r
b0 O"
b10000000000000000000 g
13
b1000000000000000 :
b1000000000000000 {
b1000000000000000 A"
b1000000000000000 C"
b11 <
b11 |
b11 @"
b11 B"
b10000000000000000000000000000000 L
b10000000000000000000000000000000 j
b10000000000000000000000000000000 l
b10000000000000000000000000000000 q
b10000000000000000000000000000000 h
b0 f
b1 $"
b1 2
b1 )"
b1 K"
00
0%"
1?
b1 @
b1 +"
b1 1"
b1 H
b1 ""
b1 -"
b100101 I
b100101 !"
b100101 ,"
b10000000000000000000000000100 %
b10000000000000000000000000100 '
b10000000000000000000000000100 )
b10000000000000000000000000100 9"
b10000000000000000000 b
b10000 `
b11111111111111111111111111101111 X
b1 w
b1 x
b0 y
b1101 z
b100 ~
b1000000000000000 ;
b1000000000000000 o
b1000000000000000 ?"
b11 =
b11 n
b11 >"
b1000000000010000 Z
b10000 P
b10000 ^
b10000 6"
b10 S
b10 c
b10 4"
b1111100 T
b1111100 d
b1111100 3"
b110100000000010000000000000001 F
b110100000000010000000000000001 }
b110100000000010000000000000001 <"
b10000 t
b1100 u
b1000 C
b1000 v
b1000 ="
b1100 $
b1100 &
b1100 (
b1100 6
b1100 ;"
b1100 I"
1!
#280000
0!
#290000
17
1G
b100000 U
b100000 #"
b100000 G"
b0 A
b0 *"
b0 0"
10
b0 g
b110100000000010000000000000010 %
b110100000000010000000000000010 '
b110100000000010000000000000010 )
b110100000000010000000000000010 9"
b0 $"
b0 2
b0 )"
b0 K"
13
0%"
0?
b0 @
b0 +"
b0 1"
b110 H
b110 ""
b110 -"
b1010001 I
b1010001 !"
b1010001 ,"
b1 L
b1 j
b1 l
b1 q
b1 M
b1 i
b1 k
b1 p
b0 h
b1 f
b10000000000000000000000000000000 :
b10000000000000000000000000000000 {
b10000000000000000000000000000000 A"
b10000000000000000000000000000000 C"
b0 w
b100 x
b100 z
b10000 ~
b1 _
b1 [
b0 b
b0 `
b11111111111111111111111111111111 X
b10000 $
b10000 &
b10000 (
b10000 6
b10000 ;"
b10000 I"
b10000000000000000000000000100 F
b10000000000000000000000000100 }
b10000000000000000000000000100 <"
b10100 t
b10000 u
b1100 C
b1100 v
b1100 ="
b1 N
b1 Y
b1 8"
b1 O
b1 \
b1 7"
b1 Z
b0 P
b0 ^
b0 6"
b1 S
b1 c
b1 4"
b100101 T
b100101 d
b100101 3"
b10000000000000000000000000000000 ;
b10000000000000000000000000000000 o
b10000000000000000000000000000000 ?"
b1000000000000000 -
b1000000000000000 F"
b1000000000000000 M"
b11 .
b11 E"
b11 L"
1!
#300000
0!
#310000
b10 A
b10 *"
b10 0"
b1 @
b1 +"
b1 1"
b10 $"
1?
b1 :
b1 {
b1 A"
b1 C"
b1 <
b1 |
b1 @"
b1 B"
1E
b0 L
b0 j
b0 l
b0 q
0J
b0 M
b0 i
b0 k
b0 p
b0 f
07
b0 U
b0 #"
b0 G"
0G
b1 2
b1 )"
b1 K"
00
13
0%"
b1 H
b1 ""
b1 -"
b100101 I
b100101 !"
b100101 ,"
b110100000000010000000000000011 %
b110100000000010000000000000011 '
b110100000000010000000000000011 )
b110100000000010000000000000011 9"
b0 _
0]
b0 Z
b0 [
b1 w
b10 x
b1101 z
b1000 ~
b10000000000000000000000000000000 -
b10000000000000000000000000000000 F"
b10000000000000000000000000000000 M"
b1 ;
b1 o
b1 ?"
b1 =
b1 n
b1 >"
1>
0K
b0 N
b0 Y
b0 8"
b0 O
b0 \
b0 7"
b110 S
b110 c
b110 4"
b1010001 T
b1010001 d
b1010001 3"
b110100000000010000000000000010 F
b110100000000010000000000000010 }
b110100000000010000000000000010 <"
b11000 t
b10100 u
b10000 C
b10000 v
b10000 ="
b100000 $
b100000 &
b100000 (
b100000 6
b100000 ;"
b100000 I"
1!
#320000
0!
#330000
b10 L
b10 j
b10 l
b10 q
b11 A
b11 *"
b11 0"
b110100000111110000000000101100 %
b110100000111110000000000101100 '
b110100000111110000000000101100 )
b110100000111110000000000101100 9"
b11 $"
13
0%"
1?
b1 @
b1 +"
b1 1"
b1 H
b1 ""
b1 -"
b100101 I
b100101 !"
b100101 ,"
0E
1J
b1 M
b1 i
b1 k
b1 p
b10 f
b0 :
b0 {
b0 A"
b0 C"
08
b0 <
b0 |
b0 @"
b0 B"
b11 x
b1100 ~
b10 _
1]
b10 Z
b10 [
b100100 $
b100100 &
b100100 (
b100100 6
b100100 ;"
b100100 I"
b110100000000010000000000000011 F
b110100000000010000000000000011 }
b110100000000010000000000000011 <"
b101000 t
b100100 u
b100000 C
b100000 v
b100000 ="
0>
1R
1K
b1 N
b1 Y
b1 8"
b10 O
b10 \
b10 7"
b1 S
b1 c
b1 4"
b100101 T
b100101 d
b100101 3"
b0 ;
b0 o
b0 ?"
09
b0 =
b0 n
b0 >"
b1 -
b1 F"
b1 M"
b1 .
b1 E"
b1 L"
1!
#340000
0!
#350000
b11 L
b11 j
b11 l
b11 q
b101100 A
b101100 *"
b101100 0"
b10 :
b10 {
b10 A"
b10 C"
18
b1 <
b1 |
b1 @"
b1 B"
b11 f
b101100 $"
b11111 2
b11111 )"
b11111 K"
13
0%"
1?
b11111 @
b11111 +"
b11111 1"
b1 H
b1 ""
b1 -"
b100101 I
b100101 !"
b100101 ,"
b10000000000000000000000001001 %
b10000000000000000000000001001 '
b10000000000000000000000001001 )
b10000000000000000000000001001 9"
b11 _
b11 Z
b11 [
b11111 w
b101100 x
b10110000 ~
b0 -
b0 F"
b0 M"
0,
b0 .
b0 E"
b0 L"
b10 ;
b10 o
b10 ?"
19
b1 =
b1 n
b1 >"
0R
b11 O
b11 \
b11 7"
b110100000111110000000000101100 F
b110100000111110000000000101100 }
b110100000111110000000000101100 <"
b101100 t
b101000 u
b100100 C
b100100 v
b100100 ="
b101000 $
b101000 &
b101000 (
b101000 6
b101000 ;"
b101000 I"
1!
#360000
0!
#370000
17
1G
b1010000 U
b1010000 #"
b1010000 G"
b101100 L
b101100 j
b101100 l
b101100 q
b0 A
b0 *"
b0 0"
10
b110100000000010001000100000000 %
b110100000000010001000100000000 '
b110100000000010001000100000000 )
b110100000000010001000100000000 9"
b0 $"
b0 2
b0 )"
b0 K"
13
0%"
0?
b0 @
b0 +"
b0 1"
b110 H
b110 ""
b110 -"
b1010001 I
b1010001 !"
b1010001 ,"
b11111 M
b11111 i
b11111 k
b11111 p
b101100 f
b11 :
b11 {
b11 A"
b11 C"
b0 w
b1001 x
b100 z
b100100 ~
b101100 _
b101100 Z
b101100 [
b101100 $
b101100 &
b101100 (
b101100 6
b101100 ;"
b101100 I"
b10000000000000000000000001001 F
b10000000000000000000000001001 }
b10000000000000000000000001001 <"
b110000 t
b101100 u
b101000 C
b101000 v
b101000 ="
b11111 N
b11111 Y
b11111 8"
b101100 O
b101100 \
b101100 7"
b11 ;
b11 o
b11 ?"
b10 -
b10 F"
b10 M"
1,
b1 .
b1 E"
b1 L"
1!
#380000
0!
#390000
b1000100000000 A
b1000100000000 *"
b1000100000000 0"
b1000100000000 $"
1?
b101100 :
b101100 {
b101100 A"
b101100 C"
b11111 <
b11111 |
b11111 @"
b11111 B"
1E
b0 L
b0 j
b0 l
b0 q
0J
b0 M
b0 i
b0 k
b0 p
b0 f
07
b0 U
b0 #"
b0 G"
0G
b1 2
b1 )"
b1 K"
00
13
0%"
b1 @
b1 +"
b1 1"
b1 H
b1 ""
b1 -"
b100101 I
b100101 !"
b100101 ,"
b110100000000010000000000000100 %
b110100000000010000000000000100 '
b110100000000010000000000000100 )
b110100000000010000000000000100 9"
b0 _
0]
b0 Z
b0 [
b1 w
b0 x
b100 y
b1101 z
b100010000000000 ~
b11 -
b11 F"
b11 M"
b101100 ;
b101100 o
b101100 ?"
b11111 =
b11111 n
b11111 >"
1>
0K
b0 N
b0 Y
b0 8"
b0 O
b0 \
b0 7"
b110 S
b110 c
b110 4"
b1010001 T
b1010001 d
b1010001 3"
b110100000000010001000100000000 F
b110100000000010001000100000000 }
b110100000000010001000100000000 <"
b110100 t
b110000 u
b101100 C
b101100 v
b101100 ="
b1010000 $
b1010000 &
b1010000 (
b1010000 6
b1010000 ;"
b1010000 I"
1!
#400000
0!
#410000
b1000100000000 L
b1000100000000 j
b1000100000000 l
b1000100000000 q
b100 A
b100 *"
b100 0"
b10000011000110000000000001010 %
b10000011000110000000000001010 '
b10000011000110000000000001010 )
b10000011000110000000000001010 9"
b100 $"
13
0%"
1?
b1 @
b1 +"
b1 1"
b1 H
b1 ""
b1 -"
b100101 I
b100101 !"
b100101 ,"
0E
1J
b1 M
b1 i
b1 k
b1 p
b1000100000000 f
b0 :
b0 {
b0 A"
b0 C"
08
b0 <
b0 |
b0 @"
b0 B"
b100 x
b0 y
b10000 ~
b1000100000000 _
1]
b1000100000000 Z
b1000100000000 [
b1010100 $
b1010100 &
b1010100 (
b1010100 6
b1010100 ;"
b1010100 I"
b110100000000010000000000000100 F
b110100000000010000000000000100 }
b110100000000010000000000000100 <"
b1011000 t
b1010100 u
b1010000 C
b1010000 v
b1010000 ="
0>
1R
1K
b1 N
b1 Y
b1 8"
b1000100000000 O
b1000100000000 \
b1000100000000 7"
b1 S
b1 c
b1 4"
b100101 T
b100101 d
b100101 3"
b0 ;
b0 o
b0 ?"
09
b0 =
b0 n
b0 >"
b101100 -
b101100 F"
b101100 M"
b11111 .
b11111 E"
b11111 L"
1!
#420000
0!
#430000
17
1G
b10000000 U
b10000000 #"
b10000000 G"
b10000000000000000000000000000000 B
b10000000000000000000000000000000 ("
b10000000000000000000000000000000 /"
b100 L
b100 j
b100 l
b100 q
b10000000000000000000000000000000 A
b10000000000000000000000000000000 *"
b10000000000000000000000000000000 0"
b10000000000000000000000000000000 1
b10000000000000000000000000000000 r
b10000000000000000000000000000000 O"
b10000000000000000000000000000000 4
b10000000000000000000000000000000 s
b10000000000000000000000000000000 N"
10
b1000100000000 :
b1000100000000 {
b1000100000000 A"
b1000100000000 C"
18
b1 <
b1 |
b1 @"
b1 B"
b100 f
b0 $"
b11 2
b11 )"
b11 K"
b11 5
b11 '"
b11 J"
13
0%"
0?
b0 @
b0 +"
b0 1"
b110 H
b110 ""
b110 -"
b1010001 I
b1010001 !"
b1010001 ,"
b11111000000000100000100101 %
b11111000000000100000100101 '
b11111000000000100000100101 )
b11111000000000100000100101 9"
b100 _
b100 Z
b100 [
b11 w
b1010 x
b100 z
b101000 ~
b0 -
b0 F"
b0 M"
0,
b0 .
b0 E"
b0 L"
b1000100000000 ;
b1000100000000 o
b1000100000000 ?"
19
b1 =
b1 n
b1 >"
0R
b100 O
b100 \
b100 7"
b10000011000110000000000001010 F
b10000011000110000000000001010 }
b10000011000110000000000001010 <"
b1011100 t
b1011000 u
b1010100 C
b1010100 v
b1010100 ="
b1011000 $
b1011000 &
b1011000 (
b1011000 6
b1011000 ;"
b1011000 I"
1!
#440000
0!
#450000
b0 A
b0 *"
b0 0"
b101100 B
b101100 ("
b101100 /"
b0 1
b0 r
b0 O"
b101100 4
b101100 s
b101100 N"
1?
b100000000000000000000000000000000000000000000000000000000000000 g
b110100000000010000000000000101 %
b110100000000010000000000000101 '
b110100000000010000000000000101 )
b110100000000010000000000000101 9"
07
b0 U
b0 #"
b0 G"
0G
b0 2
b0 )"
b0 K"
b11111 5
b11111 '"
b11111 J"
10
13
0%"
b1 @
b1 +"
b1 1"
b1 H
b1 ""
b1 -"
b100101 I
b100101 !"
b100101 ,"
1E
b0 L
b0 j
b0 l
b0 q
0J
b0 M
b0 i
b0 k
b0 p
b0 f
b100 :
b100 {
b100 A"
b100 C"
1W
b0 w
b100101 x
b0 z
b10000010010100 ~
b10000000000000000000000000000000 _
b10000000000000000000000000000000 [
b100000000000000000000000000000000000000000000000000000000000000 b
b10000000000000000000000000000000 `
0]
b1111111111111111111111111111111 X
b10000000 $
b10000000 &
b10000000 (
b10000000 6
b10000000 ;"
b10000000 I"
b11111000000000100000100101 F
b11111000000000100000100101 }
b11111000000000100000100101 <"
b1100000 t
b1011100 u
b1011000 C
b1011000 v
b1011000 ="
1>
0K
b0 N
b0 Y
b0 8"
b10000000000000000000000000000000 O
b10000000000000000000000000000000 \
b10000000000000000000000000000000 7"
b0 Z
b10000000000000000000000000000000 P
b10000000000000000000000000000000 ^
b10000000000000000000000000000000 6"
b110 S
b110 c
b110 4"
b1010001 T
b1010001 d
b1010001 3"
b100 ;
b100 o
b100 ?"
b1000100000000 -
b1000100000000 F"
b1000100000000 M"
1,
b1 .
b1 E"
b1 L"
1!
#460000
0!
#470000
b0 B
b0 ("
b0 /"
b101100 L
b101100 j
b101100 l
b101100 q
b101 A
b101 *"
b101 0"
b0 4
b0 s
b0 N"
b0 g
b101 $"
b0 :
b0 {
b0 A"
b0 C"
08
b0 <
b0 |
b0 @"
b0 B"
0E
1J
b1 M
b1 i
b1 k
b1 p
b101100 f
b1 2
b1 )"
b1 K"
b0 5
b0 '"
b0 J"
00
13
0%"
1?
b1 @
b1 +"
b1 1"
b1 H
b1 ""
b1 -"
b100101 I
b100101 !"
b100101 ,"
b100001000011111111111110111 %
b100001000011111111111110111 '
b100001000011111111111110111 )
b100001000011111111111110111 9"
0W
b0 _
b0 [
b0 b
b101100 `
b11111111111111111111111111010011 X
b1 w
b101 x
b1101 z
b10100 ~
b100 -
b100 F"
b100 M"
b0 ;
b0 o
b0 ?"
09
b0 =
b0 n
b0 >"
0>
1R
1K
b1 N
b1 Y
b1 8"
b0 O
b0 \
b0 7"
b101100 Z
b101100 P
b101100 ^
b101100 6"
b1 S
b1 c
b1 4"
b100101 T
b100101 d
b100101 3"
b110100000000010000000000000101 F
b110100000000010000000000000101 }
b110100000000010000000000000101 <"
b10001000 t
b10000100 u
b10000000 C
b10000000 v
b10000000 ="
b10000100 $
b10000100 &
b10000100 (
b10000100 6
b10000100 ;"
b10000100 I"
1!
#480000
0!
#490000
b100 4
b100 s
b100 N"
b101 L
b101 j
b101 l
b101 q
b0 A
b0 *"
b0 0"
b101 B
b101 ("
b101 /"
17
1G
b1100100 U
b1100100 #"
b1100100 G"
b110100000000010000000000000110 %
b110100000000010000000000000110 '
b110100000000010000000000000110 )
b110100000000010000000000000110 9"
b0 $"
b1 5
b1 '"
b1 J"
13
0%"
0?
b11111 @
b11111 +"
b11111 1"
b110 H
b110 ""
b110 -"
b1000001 I
b1000001 !"
b1000001 ,"
b101 f
b101100 :
b101100 {
b101100 A"
b101100 C"
18
b1 <
b1 |
b1 @"
b1 B"
b110111 x
b11111 y
b1 z
b11111111111111111111111111011100 ~
b101 _
1]
b101 [
b0 `
b11111111111111111111111111111111 X
b10001000 $
b10001000 &
b10001000 (
b10001000 6
b10001000 ;"
b10001000 I"
b100001000011111111111110111 F
b100001000011111111111110111 }
b100001000011111111111110111 <"
b10001100 t
b10001000 u
b10000100 C
b10000100 v
b10000100 ="
0R
b101 O
b101 \
b101 7"
b101 Z
b0 P
b0 ^
b0 6"
b101100 ;
b101100 o
b101100 ?"
19
b1 =
b1 n
b1 >"
b0 -
b0 F"
b0 M"
0,
b0 .
b0 E"
b0 L"
1!
#500000
0!
#510000
b110 A
b110 *"
b110 0"
b0 B
b0 ("
b0 /"
b110 $"
1?
b0 4
b0 s
b0 N"
b101 :
b101 {
b101 A"
b101 C"
1E
b0 L
b0 j
b0 l
b0 q
0J
b11111 M
b11111 i
b11111 k
b11111 p
b0 f
07
b0 U
b0 #"
b0 G"
0G
b0 5
b0 '"
b0 J"
13
0%"
b1 @
b1 +"
b1 1"
b1 H
b1 ""
b1 -"
b100101 I
b100101 !"
b100101 ,"
b110100000000010000000000000111 %
b110100000000010000000000000111 '
b110100000000010000000000000111 )
b110100000000010000000000000111 9"
b0 _
b0 [
b0 b
b101 `
0]
b11111111111111111111111111111010 X
b110 x
b0 y
b1101 z
b11000 ~
b101100 -
b101100 F"
b101100 M"
1,
b1 .
b1 E"
b1 L"
b101 ;
b101 o
b101 ?"
1>
0K
b11111 N
b11111 Y
b11111 8"
b0 O
b0 \
b0 7"
b101 Z
b101 P
b101 ^
b101 6"
b110 S
b110 c
b110 4"
b1000001 T
b1000001 d
b1000001 3"
b110100000000010000000000000110 F
b110100000000010000000000000110 }
b110100000000010000000000000110 <"
b10010000 t
b10001100 u
b10001000 C
b10001000 v
b10001000 ="
b1100100 $
b1100100 &
b1100100 (
b1100100 6
b1100100 ;"
b1100100 I"
1!
#520000
0!
